{
  "service_name": "HelloSiLA2Metadata",
  "service_description": "This is a sample Hello SiLA 2 service with metadata",
  "authors": "Florian Meinicke",
  "creation_date": "20191230",
  "version": "0.0.1",
  "vendor_url": "org.silastandard",
  "SiLA_standard_feature_list": [
    "SiLAService",
    "SimulationController"
  ],
  "SiLA_feature_list": [
    "GreetingProvider",
    "TemperatureController"
  ],
  "communication_port": "50051",
  "IP_address": "127.0.0.1",
  "hostname": "localhost"
}
